<svg width="68" height="68" viewBox="0 0 68 68" fill="none" xmlns="http://www.w3.org/2000/svg">
<g filter="url(#filter0_d_84_1532)">
<path d="M4 30C4 13.4315 17.4315 0 34 0C50.5685 0 64 13.4315 64 30C64 46.5685 50.5685 60 34 60C17.4315 60 4 46.5685 4 30Z" fill="white"/>
<path d="M49.8084 39.3928C49.2159 40.7554 48.5146 42.0096 47.702 43.1627C46.5945 44.7347 45.6876 45.8228 44.9887 46.4271C43.9053 47.4189 42.7445 47.9268 41.5015 47.9557C40.6092 47.9557 39.533 47.703 38.2804 47.1902C37.0236 46.6798 35.8686 46.4271 34.8125 46.4271C33.705 46.4271 32.5171 46.6798 31.2465 47.1902C29.974 47.703 28.9489 47.9702 28.1651 47.9967C26.9732 48.0472 25.7851 47.5248 24.5991 46.4271C23.8422 45.7699 22.8954 44.6432 21.7613 43.0472C20.5444 41.3428 19.5439 39.3664 18.7602 37.1131C17.9208 34.6793 17.5 32.3225 17.5 30.0408C17.5 27.4272 18.0673 25.173 19.2037 23.2839C20.0968 21.7666 21.2849 20.5697 22.7719 19.691C24.2589 18.8123 25.8656 18.3645 27.5959 18.3359C28.5426 18.3359 29.7842 18.6274 31.3271 19.2004C32.8656 19.7752 33.8535 20.0668 34.2866 20.0668C34.6104 20.0668 35.7078 19.7259 37.5682 19.0463C39.3275 18.4161 40.8123 18.1551 42.0287 18.2579C45.3249 18.5227 47.8012 19.8162 49.448 22.1465C46.5001 23.9245 45.0419 26.4149 45.0709 29.6097C45.0975 32.0981 46.0044 34.1689 47.7867 35.8131C48.5944 36.5763 49.4964 37.1661 50.5 37.5849C50.2824 38.2132 50.0526 38.8151 49.8084 39.3928ZM42.2488 9.78022C42.2488 11.7307 41.533 13.5518 40.1062 15.2374C38.3844 17.2413 36.3017 18.3992 34.0433 18.2165C34.0145 17.9825 33.9978 17.7362 33.9978 17.4774C33.9978 15.605 34.8167 13.6011 36.2708 11.9627C36.9967 11.1331 37.92 10.4434 39.0397 9.89312C40.157 9.35109 41.2138 9.05133 42.2077 9C42.2367 9.26074 42.2488 9.5215 42.2488 9.7802V9.78022Z" fill="black"/>
</g>
<defs>
<filter id="filter0_d_84_1532" x="0" y="0" width="68" height="68" filterUnits="userSpaceOnUse" color-interpolation-filters="sRGB">
<feFlood flood-opacity="0" result="BackgroundImageFix"/>
<feColorMatrix in="SourceAlpha" type="matrix" values="0 0 0 0 0 0 0 0 0 0 0 0 0 0 0 0 0 0 127 0" result="hardAlpha"/>
<feOffset dy="4"/>
<feGaussianBlur stdDeviation="2"/>
<feComposite in2="hardAlpha" operator="out"/>
<feColorMatrix type="matrix" values="0 0 0 0 0 0 0 0 0 0 0 0 0 0 0 0 0 0 0.25 0"/>
<feBlend mode="normal" in2="BackgroundImageFix" result="effect1_dropShadow_84_1532"/>
<feBlend mode="normal" in="SourceGraphic" in2="effect1_dropShadow_84_1532" result="shape"/>
</filter>
</defs>
</svg>
