<svg width="40" height="40" viewBox="0 0 40 40" fill="none" xmlns="http://www.w3.org/2000/svg">
<g opacity="0.5" clip-path="url(#clip0_14_1660)">
<path d="M13.2499 36.875L30.1249 20" stroke="#FFA674" stroke-width="6.75" stroke-linecap="round" stroke-linejoin="round"/>
<path d="M13.2499 36.875L30.1249 20" stroke="url(#paint0_linear_14_1660)" stroke-width="6.75" stroke-linecap="round" stroke-linejoin="round"/>
<path d="M30.1249 20L13.2499 3.12503" stroke="#FFA674" stroke-width="6.75" stroke-linecap="round" stroke-linejoin="round"/>
<path d="M30.1249 20L13.2499 3.12503" stroke="url(#paint1_linear_14_1660)" stroke-width="6.75" stroke-linecap="round" stroke-linejoin="round"/>
</g>
<defs>
<linearGradient id="paint0_linear_14_1660" x1="15.535" y1="35.136" x2="30.2327" y2="35.0206" gradientUnits="userSpaceOnUse">
<stop stop-color="#FE7373"/>
<stop offset="0.605867" stop-color="#FE7373" stop-opacity="0.339822"/>
<stop offset="0.915157" stop-color="#FE7373" stop-opacity="0"/>
</linearGradient>
<linearGradient id="paint1_linear_14_1660" x1="15.535" y1="18.261" x2="30.2327" y2="18.1456" gradientUnits="userSpaceOnUse">
<stop stop-color="#FE7373"/>
<stop offset="0.605867" stop-color="#FE7373" stop-opacity="0.339822"/>
<stop offset="0.915157" stop-color="#FE7373" stop-opacity="0"/>
</linearGradient>
<clipPath id="clip0_14_1660">
<rect width="40" height="40" fill="white"/>
</clipPath>
</defs>
</svg>
