<svg width="54" height="54" viewBox="0 0 54 54" fill="none" xmlns="http://www.w3.org/2000/svg">
<path d="M38.586 29.9514L39.968 20.8511H31.3226V14.9482C31.3226 12.4579 32.5281 10.0291 36.4003 10.0291H40.3333V2.28151C40.3333 2.28151 36.7656 1.66663 33.3561 1.66663C26.2328 1.66663 21.5814 6.02617 21.5814 13.9152V20.8511H13.6666V29.9514H21.5814V51.9521C23.1704 52.2042 24.796 52.3333 26.452 52.3333C28.108 52.3333 29.7336 52.2042 31.3226 51.9521V29.9514H38.586Z" fill="#1877F2"/>
</svg>
