<svg width="68" height="68" viewBox="0 0 68 68" fill="none" xmlns="http://www.w3.org/2000/svg">
<g filter="url(#filter0_d_84_1531)">
<path d="M4 30C4 13.4315 17.4315 0 34 0C50.5685 0 64 13.4315 64 30C64 46.5685 50.5685 60 34 60C17.4315 60 4 46.5685 4 30Z" fill="white"/>
<path fill-rule="evenodd" clip-rule="evenodd" d="M52.51 30.4432C52.51 29.0605 52.3859 27.7309 52.1555 26.4546H33.79V33.9975H44.2845C43.8325 36.435 42.4586 38.5002 40.3934 39.883V44.7757H46.6955C50.3827 41.3809 52.51 36.3818 52.51 30.4432Z" fill="#4285F4"/>
<path fill-rule="evenodd" clip-rule="evenodd" d="M33.79 49.5C39.055 49.5 43.4691 47.7538 46.6955 44.7757L40.3934 39.8829C38.6473 41.0529 36.4137 41.7443 33.79 41.7443C28.7112 41.7443 24.4123 38.3141 22.8789 33.705H16.3641V38.7573C19.5728 45.1302 26.1673 49.5 33.79 49.5Z" fill="#34A853"/>
<path fill-rule="evenodd" clip-rule="evenodd" d="M22.8789 33.705C22.4889 32.535 22.2673 31.2852 22.2673 30C22.2673 28.7148 22.4889 27.465 22.8789 26.295V21.2427H16.3641C15.0434 23.8752 14.29 26.8534 14.29 30C14.29 33.1466 15.0434 36.1248 16.3641 38.7573L22.8789 33.705Z" fill="#FBBC05"/>
<path fill-rule="evenodd" clip-rule="evenodd" d="M33.79 18.2557C36.653 18.2557 39.2234 19.2395 41.2444 21.1718L46.8373 15.5789C43.4603 12.4323 39.0462 10.5 33.79 10.5C26.1673 10.5 19.5728 14.8698 16.3641 21.2427L22.8789 26.295C24.4123 21.6859 28.7112 18.2557 33.79 18.2557Z" fill="#EA4335"/>
</g>
<defs>
<filter id="filter0_d_84_1531" x="0" y="0" width="68" height="68" filterUnits="userSpaceOnUse" color-interpolation-filters="sRGB">
<feFlood flood-opacity="0" result="BackgroundImageFix"/>
<feColorMatrix in="SourceAlpha" type="matrix" values="0 0 0 0 0 0 0 0 0 0 0 0 0 0 0 0 0 0 127 0" result="hardAlpha"/>
<feOffset dy="4"/>
<feGaussianBlur stdDeviation="2"/>
<feComposite in2="hardAlpha" operator="out"/>
<feColorMatrix type="matrix" values="0 0 0 0 0 0 0 0 0 0 0 0 0 0 0 0 0 0 0.25 0"/>
<feBlend mode="normal" in2="BackgroundImageFix" result="effect1_dropShadow_84_1531"/>
<feBlend mode="normal" in="SourceGraphic" in2="effect1_dropShadow_84_1531" result="shape"/>
</filter>
</defs>
</svg>
