<svg width="54" height="54" viewBox="0 0 54 54" fill="none" xmlns="http://www.w3.org/2000/svg">
<g clip-path="url(#clip0_14_1635)">
<path d="M45.1431 25.0952L37.5241 32.7143H29.905L23.2384 39.3809V32.7143H14.6669V4.14282H45.1431V25.0952Z" fill="white"/>
<path d="M12.762 0.333313L3.23822 9.85712V44.1428H14.6668V53.6666L24.1906 44.1428H31.8096L48.9525 27V0.333313H12.762ZM45.143 25.0952L37.5239 32.7143H29.9049L23.2382 39.3809V32.7143H14.6668V4.14284H45.143V25.0952Z" fill="#9146FF"/>
<path d="M39.4285 10.8094H35.619V22.238H39.4285V10.8094Z" fill="#9146FF"/>
<path d="M28.9524 10.8096H25.1429V22.2381H28.9524V10.8096Z" fill="#9146FF"/>
</g>
<defs>
<clipPath id="clip0_14_1635">
<rect width="53.3333" height="53.3333" fill="white" transform="translate(0 0.333313)"/>
</clipPath>
</defs>
</svg>
