<svg width="66" height="65" viewBox="0 0 66 65" fill="none" xmlns="http://www.w3.org/2000/svg">
<g clip-path="url(#clip0_14_1635)">
<path d="M55.4026 30.3571L46.1646 39.5952H36.9265L28.8431 47.6786V39.5952H18.4503V4.95233H55.4026V30.3571Z" fill="white"/>
<path d="M19.0564 53.4524V52.8461H18.4501H5.19921V12.1321L16.3917 0.939563H59.4153V32.4155L38.9847 52.8461H29.9977H29.7466L29.569 53.0237L19.0564 63.5364V53.4524ZM55.8312 30.7858L56.0087 30.6082V30.3571V4.95236V4.34611H55.4025H18.4501H17.8439V4.95236V39.5952V40.2015H18.4501H28.2367V47.6786V49.1422L29.2716 48.1072L37.1774 40.2015H46.1644H46.4155L46.5931 40.0239L55.8312 30.7858Z" fill="white" stroke="#2E3233" stroke-width="1.2125"/>
<path d="M44.4609 13.6419H47.8675V26.2865H44.4609V13.6419Z" fill="#2E3233" stroke="#2E3233" stroke-width="1.2125"/>
<path d="M31.7587 13.642H35.1652V26.2867H31.7587V13.642Z" fill="#2E3233" stroke="#2E3233" stroke-width="1.2125"/>
</g>
<defs>
<clipPath id="clip0_14_1635">
<rect width="64.6667" height="64.6667" fill="white" transform="translate(0.666626 0.333313)"/>
</clipPath>
</defs>
</svg>
